﻿{
    "controlDomainName": "http://localhost:81/bek/control/",
  "l_websiteName": "موقع ابن البيك",
  "l_company": "موقع ابن البيك",
  "l_password": "لرقم السري",
  "l_fillEmptyFields": "عليك تعبئة الحقول الفارغة",
  "l_savesuccess": "تم الحفظ بنجاح",
  "l_errormessage": "خطأ: لم يتم الحفظ يرجى المحاولة لاحقاً",
  "l_close": "إغلاق",
  "l_cities": "بلدات",
  "l_area": "المنطقة",
  "l_videoslist": "قائمة الفيديو",
  "l_addNewVideo": "إضافة فيديو",
  "l_updateVideo": "تعديل فيديو",
  "l_city": "البلدة",
  "l_videoTitle": "عنوان",
  "l_videoDetails": "تفاصيل",
  "l_link": "رابط",
  "l_deleteMessageConfirm": "هل انت متأكد من الحذف?",
  "l_latestVideo": "آخر الفيديوهات",
  "l_latestSubjects": "آخر المواضيع",
  "l_deleterror": "Error! لم يتم الحذف",
  "l_deletesuccess": "تم الحذف، سيتم اغلاق هذه الصفحة بشكل تلقائي",
  "l_errorMustUpTo5": "Error! عليك ان تختار على الاقل واحد وعلى الاكثر 5",
  "l_search": "بحث",
  "l_viewpagelimit": "اعرض في كل صفحة",
  "requestFail": "حدث خطأ من جهة السيرفر",
  "l_addnewsubject": "أضف موضوع جديد",
  "l_updatesubject": "تعديل موضوع",
  "l_subjectslist": "قائمة المواضيع",
  "l_folder": "مجلد الصور",
  "l_browse": "تصفح",
  "l_fileuploadfieldEmptyText": "اختر ملف او اكثر ليتم رفعه...",
  "l_fileExist": "الملف موجود",
  "l_fileRenamed": "تم تغيير أسم الملف",
  "l_couldNotUpload": "لم يتم رفع الملف!",
  "l_uploadFile": "تحميل ملف",
  "l_createNewFolder": "إنشاء مجلد جديد",
  "l_name": "الإسم",
  "l_Size": "الحجم",
  "l_LastModified": "آخر تعديل",
  "l_FileList": "قائمة الملفات",
  "l_LocalhostDirectory": "المكتبة",
  "l_PleaseWait": "يرجى الإنتظار",
  "l_Loading": "جاري التحميل",
  "l_NewFolderNameEmptyText": "اكتب اسم المجلد الجديد",
  "l_FolderName": "إسم المجلد",
  "l_chooseFolder": "اختيار المجلد",
  "l_folderOptions": "مجلد",
  "l_fileOptions": "ملف",
  "l_view": "عرض",
  "l_delete": "حذف",
  "l_File": "مـــلف",
  "l_Upload": "تحمــيل",
  "l_totalFiles": "مجموع الملفات",
  "l_Uploadingfile": "يتم تحميل الملف...",
  "l_confirmDelete": "تأكيد حذف",
  "l_Deletingfile": "جاري الحذف...",
  "l_confirmDeleteText": "هل أنت متأكد من الحذف؟",
  "l_deleteFolderWarning": "عند حذف المجلد سوف يتم حذف جميل الملفات بداخله",
  "l_couldNotDelete": "لم يتم حذف الملف!",
  "l_viewerWindow": "نافذة العرض",
  "l_ads": "إعلانات",
  "l_adsList": "قائمة الإعلانات",
  "l_addNewAd": "أضف إعلان",
  "l_updateAd":"تعديل إعلان",
  "l_adTitle": "عنوان",
  "l_adLocation": "مكان الإعلان",
  "l_file": "ملف",
  "l_linkTarget": "نوع الرابط",
  "l_details": "تفاصيل",
  "l_startDate": "تاريخ البداية",
  "l_endDate": "تاريح الانتهاء",
  "l_mainPage": "الصفحة الخارجية",
  "l_innerPage": "الصفحة الداخلية",
  "l_newPage": "صفحة جديدة",
  "l_samePage": "ذات الصفحة",
  "l_add": "أضافة",
  "l_save": "حفظ"
}